# This file uses centimeters as units for non-parametric coordinates.

mtllib red gem.mtl
g default
v 1.000000 0.860480 0.000000
v 0.923880 0.860480 -0.382683
v 0.707107 0.860480 -0.707107
v 0.382683 0.860480 -0.923880
v 0.000000 0.860480 -1.000000
v -0.382683 0.860480 -0.923880
v -0.707107 0.860480 -0.707107
v -0.923880 0.860480 -0.382683
v -1.000000 0.860480 0.000000
v -0.923880 0.860480 0.382683
v -0.707107 0.860480 0.707107
v -0.382684 0.860480 0.923880
v 0.000000 0.860480 1.000000
v 0.382684 0.860480 0.923879
v 0.707107 0.860480 0.707107
v 0.923880 0.860480 0.382683
v 1.000000 0.894480 0.000000
v 0.923880 0.894480 -0.382683
v 0.707107 0.894480 -0.707107
v 0.382683 0.894480 -0.923880
v 0.000000 0.894480 -1.000000
v -0.382683 0.894480 -0.923880
v -0.707107 0.894480 -0.707107
v -0.923880 0.894480 -0.382683
v -1.000000 0.894480 0.000000
v -0.923880 0.894480 0.382683
v -0.707107 0.894480 0.707107
v -0.382684 0.894480 0.923880
v 0.000000 0.894480 1.000000
v 0.382684 0.894480 0.923879
v 0.707107 0.894480 0.707107
v 0.923880 0.894480 0.382683
v 0.980785 0.878350 -0.195090
v 0.831470 0.878350 -0.555570
v 0.555570 0.878350 -0.831470
v 0.195090 0.878350 -0.980785
v -0.195090 0.878350 -0.980785
v -0.555570 0.878350 -0.831470
v -0.831470 0.878350 -0.555570
v -0.980785 0.878350 -0.195090
v -0.980785 0.878350 0.195090
v -0.831470 0.878350 0.555570
v -0.555570 0.878350 0.831469
v -0.195090 0.878350 0.980785
v 0.195090 0.878350 0.980785
v 0.555570 0.878350 0.831470
v 0.831470 0.878350 0.555570
v 0.980785 0.878350 0.195090
v 0.980785 0.878567 -0.195090
v 0.831470 0.878567 -0.555570
v 0.555570 0.878567 -0.831470
v 0.195090 0.878567 -0.980785
v -0.195090 0.878567 -0.980785
v -0.555570 0.878567 -0.831470
v -0.831470 0.878567 -0.555570
v -0.980785 0.878567 -0.195090
v -0.980785 0.878567 0.195090
v -0.831470 0.878567 0.555570
v -0.555570 0.878567 0.831469
v -0.195090 0.878567 0.980785
v 0.195090 0.878567 0.980785
v 0.555570 0.878567 0.831470
v 0.831470 0.878567 0.555570
v 0.980785 0.878567 0.195090
v 0.995185 0.873936 -0.098017
v 0.956940 0.873936 -0.290285
v 0.881921 0.873936 -0.471397
v 0.773010 0.873936 -0.634393
v 0.634393 0.873936 -0.773010
v 0.471397 0.873936 -0.881921
v 0.290285 0.873936 -0.956940
v 0.098017 0.873936 -0.995185
v -0.098017 0.873936 -0.995185
v -0.290285 0.873936 -0.956940
v -0.471397 0.873936 -0.881921
v -0.634393 0.873936 -0.773010
v -0.773010 0.873936 -0.634393
v -0.881921 0.873936 -0.471397
v -0.956940 0.873936 -0.290285
v -0.995185 0.873936 -0.098017
v -0.995185 0.873936 0.098017
v -0.956940 0.873936 0.290285
v -0.881921 0.873936 0.471397
v -0.773011 0.873936 0.634393
v -0.634393 0.873936 0.773010
v -0.471397 0.873936 0.881921
v -0.290285 0.873936 0.956940
v -0.098017 0.873936 0.995185
v 0.098017 0.873936 0.995185
v 0.290285 0.873936 0.956940
v 0.471397 0.873936 0.881921
v 0.634393 0.873936 0.773010
v 0.773011 0.873936 0.634393
v 0.881921 0.873936 0.471397
v 0.956940 0.873936 0.290285
v 0.995185 0.873936 0.098017
v 0.995185 0.882497 -0.098017
v 0.956940 0.882497 -0.290285
v 0.881921 0.882497 -0.471397
v 0.773010 0.882497 -0.634393
v 0.634393 0.882497 -0.773010
v 0.471397 0.882497 -0.881921
v 0.290285 0.882497 -0.956940
v 0.098017 0.882497 -0.995185
v -0.098017 0.882497 -0.995185
v -0.290285 0.882497 -0.956940
v -0.471397 0.882497 -0.881921
v -0.634393 0.882497 -0.773010
v -0.773010 0.882497 -0.634393
v -0.881921 0.882497 -0.471397
v -0.956940 0.882497 -0.290285
v -0.995185 0.882497 -0.098017
v -0.995185 0.882497 0.098017
v -0.956940 0.882497 0.290285
v -0.881921 0.882497 0.471397
v -0.773011 0.882497 0.634393
v -0.634393 0.882497 0.773010
v -0.471397 0.882497 0.881921
v -0.290285 0.882497 0.956940
v -0.098017 0.882497 0.995185
v 0.098017 0.882497 0.995185
v 0.290285 0.882497 0.956940
v 0.471397 0.882497 0.881921
v 0.634393 0.882497 0.773010
v 0.773011 0.882497 0.634393
v 0.881921 0.882497 0.471397
v 0.956940 0.882497 0.290285
v 0.995185 0.882497 0.098017
v 0.647500 1.137480 -0.268203
v 0.268203 1.137480 -0.647500
v -0.268203 1.137480 -0.647500
v -0.647500 1.137480 -0.268203
v -0.647500 1.137480 0.268203
v -0.268203 1.137480 0.647500
v 0.268203 1.137480 0.647500
v 0.647500 1.137480 0.268203
v 0.530000 1.218480 0.000000
v 0.374767 1.218480 -0.374767
v 0.000000 1.218480 -0.530000
v -0.374767 1.218480 -0.374767
v -0.530000 1.218480 0.000000
v -0.374767 1.218480 0.374767
v 0.000000 1.218480 0.530000
v 0.374766 1.218480 0.374767
v 0.400000 0.343280 -0.165685
v 0.165685 0.343280 -0.400000
v -0.165685 0.343280 -0.400000
v -0.400000 0.343280 -0.165685
v -0.400000 0.343280 0.165685
v -0.165685 0.343280 0.400000
v 0.165686 0.343280 0.400000
v 0.400000 0.343280 0.165685
v 0.000000 -0.001520 0.000000
vn 0.998794 0.000000 -0.049100
vn 0.998794 0.000000 -0.049100
vn 0.998794 0.000000 -0.049100
vn 0.998794 0.000000 -0.049100
vn 0.998794 0.000000 0.049100
vn 0.998794 0.000000 0.049100
vn 0.998794 0.000000 0.049100
vn 0.998794 0.000000 0.049100
vn 0.903974 0.000000 -0.427588
vn 0.903974 0.000000 -0.427588
vn 0.903974 0.000000 -0.427588
vn 0.903974 0.000000 -0.427588
vn 0.941536 0.000000 -0.336913
vn 0.941536 0.000000 -0.336913
vn 0.941536 0.000000 -0.336913
vn 0.941536 0.000000 -0.336913
vn 0.671557 0.000000 -0.740953
vn 0.671557 0.000000 -0.740953
vn 0.671557 0.000000 -0.740953
vn 0.671557 0.000000 -0.740953
vn 0.740953 0.000000 -0.671557
vn 0.740953 0.000000 -0.671557
vn 0.740953 0.000000 -0.671557
vn 0.740953 0.000000 -0.671557
vn 0.336913 0.000000 -0.941536
vn 0.336913 0.000000 -0.941536
vn 0.336913 0.000000 -0.941536
vn 0.336913 0.000000 -0.941536
vn 0.427588 0.000000 -0.903974
vn 0.427588 0.000000 -0.903974
vn 0.427588 0.000000 -0.903974
vn 0.427588 0.000000 -0.903974
vn -0.049100 0.000000 -0.998794
vn -0.049100 0.000000 -0.998794
vn -0.049100 0.000000 -0.998794
vn -0.049100 0.000000 -0.998794
vn 0.049100 0.000000 -0.998794
vn 0.049100 0.000000 -0.998794
vn 0.049100 0.000000 -0.998794
vn 0.049100 0.000000 -0.998794
vn -0.427588 0.000000 -0.903974
vn -0.427588 0.000000 -0.903974
vn -0.427588 0.000000 -0.903974
vn -0.427588 0.000000 -0.903974
vn -0.336913 0.000000 -0.941536
vn -0.336913 0.000000 -0.941536
vn -0.336913 0.000000 -0.941536
vn -0.336913 0.000000 -0.941536
vn -0.740953 0.000000 -0.671557
vn -0.740953 0.000000 -0.671557
vn -0.740953 0.000000 -0.671557
vn -0.740953 0.000000 -0.671557
vn -0.671557 0.000000 -0.740953
vn -0.671557 0.000000 -0.740953
vn -0.671557 0.000000 -0.740953
vn -0.671557 0.000000 -0.740953
vn -0.941536 0.000000 -0.336913
vn -0.941536 0.000000 -0.336913
vn -0.941536 0.000000 -0.336913
vn -0.941536 0.000000 -0.336913
vn -0.903974 0.000000 -0.427588
vn -0.903974 0.000000 -0.427588
vn -0.903974 0.000000 -0.427588
vn -0.903974 0.000000 -0.427588
vn -0.998794 0.000000 0.049100
vn -0.998794 0.000000 0.049100
vn -0.998794 0.000000 0.049100
vn -0.998794 0.000000 0.049100
vn -0.998794 0.000000 -0.049100
vn -0.998794 0.000000 -0.049100
vn -0.998794 0.000000 -0.049100
vn -0.998794 0.000000 -0.049100
vn -0.903974 0.000000 0.427588
vn -0.903974 0.000000 0.427588
vn -0.903974 0.000000 0.427588
vn -0.903974 0.000000 0.427588
vn -0.941536 0.000000 0.336913
vn -0.941536 0.000000 0.336913
vn -0.941536 0.000000 0.336913
vn -0.941536 0.000000 0.336913
vn -0.671557 0.000000 0.740953
vn -0.671557 0.000000 0.740953
vn -0.671557 0.000000 0.740953
vn -0.671557 0.000000 0.740953
vn -0.740953 0.000000 0.671557
vn -0.740953 0.000000 0.671557
vn -0.740953 0.000000 0.671557
vn -0.740953 0.000000 0.671557
vn -0.336913 0.000000 0.941536
vn -0.336913 0.000000 0.941536
vn -0.336913 0.000000 0.941536
vn -0.336913 0.000000 0.941536
vn -0.427588 0.000000 0.903974
vn -0.427588 0.000000 0.903974
vn -0.427588 0.000000 0.903974
vn -0.427588 0.000000 0.903974
vn 0.049100 0.000000 0.998794
vn 0.049100 0.000000 0.998794
vn 0.049100 0.000000 0.998794
vn 0.049100 0.000000 0.998794
vn -0.049100 0.000000 0.998794
vn -0.049100 0.000000 0.998794
vn -0.049100 0.000000 0.998794
vn -0.049100 0.000000 0.998794
vn 0.427588 0.000000 0.903974
vn 0.427588 0.000000 0.903974
vn 0.427588 0.000000 0.903974
vn 0.427588 0.000000 0.903974
vn 0.336913 0.000000 0.941536
vn 0.336913 0.000000 0.941536
vn 0.336913 0.000000 0.941536
vn 0.336913 0.000000 0.941536
vn 0.740953 0.000000 0.671557
vn 0.740953 0.000000 0.671557
vn 0.740953 0.000000 0.671557
vn 0.740953 0.000000 0.671557
vn 0.671557 0.000000 0.740953
vn 0.671557 0.000000 0.740953
vn 0.671557 0.000000 0.740953
vn 0.671557 0.000000 0.740953
vn 0.941536 0.000000 0.336913
vn 0.941536 0.000000 0.336913
vn 0.941536 0.000000 0.336913
vn 0.941536 0.000000 0.336913
vn 0.903974 0.000000 0.427588
vn 0.903974 0.000000 0.427588
vn 0.903974 0.000000 0.427588
vn 0.903974 0.000000 0.427588
vn 0.989181 0.000000 -0.146697
vn 0.989181 0.000000 -0.146697
vn 0.989181 0.000000 -0.146697
vn 0.989181 0.000000 -0.146697
vn 0.970025 0.000000 -0.243006
vn 0.970025 0.000000 -0.243006
vn 0.970025 0.000000 -0.243006
vn 0.970025 0.000000 -0.243006
vn 0.857722 0.000000 -0.514113
vn 0.857722 0.000000 -0.514113
vn 0.857722 0.000000 -0.514113
vn 0.857722 0.000000 -0.514113
vn 0.803205 0.000000 -0.595703
vn 0.803205 0.000000 -0.595703
vn 0.803205 0.000000 -0.595703
vn 0.803205 0.000000 -0.595703
vn 0.595703 0.000000 -0.803205
vn 0.595703 0.000000 -0.803205
vn 0.595703 0.000000 -0.803205
vn 0.595703 0.000000 -0.803205
vn 0.514113 0.000000 -0.857722
vn 0.514113 0.000000 -0.857722
vn 0.514113 0.000000 -0.857722
vn 0.514113 0.000000 -0.857722
vn 0.243006 0.000000 -0.970025
vn 0.243006 0.000000 -0.970025
vn 0.243006 0.000000 -0.970025
vn 0.243006 0.000000 -0.970025
vn 0.146697 0.000000 -0.989181
vn 0.146697 0.000000 -0.989181
vn 0.146697 0.000000 -0.989181
vn 0.146697 0.000000 -0.989181
vn -0.146697 0.000000 -0.989181
vn -0.146697 0.000000 -0.989181
vn -0.146697 0.000000 -0.989181
vn -0.146697 0.000000 -0.989181
vn -0.243006 0.000000 -0.970025
vn -0.243006 0.000000 -0.970025
vn -0.243006 0.000000 -0.970025
vn -0.243006 0.000000 -0.970025
vn -0.514113 0.000000 -0.857722
vn -0.514113 0.000000 -0.857722
vn -0.514113 0.000000 -0.857722
vn -0.514113 0.000000 -0.857722
vn -0.595703 0.000000 -0.803205
vn -0.595703 0.000000 -0.803205
vn -0.595703 0.000000 -0.803205
vn -0.595703 0.000000 -0.803205
vn -0.803205 0.000000 -0.595703
vn -0.803205 0.000000 -0.595703
vn -0.803205 0.000000 -0.595703
vn -0.803205 0.000000 -0.595703
vn -0.857722 0.000000 -0.514113
vn -0.857722 0.000000 -0.514113
vn -0.857722 0.000000 -0.514113
vn -0.857722 0.000000 -0.514113
vn -0.970025 0.000000 -0.243006
vn -0.970025 0.000000 -0.243006
vn -0.970025 0.000000 -0.243006
vn -0.970025 0.000000 -0.243006
vn -0.989181 0.000000 -0.146697
vn -0.989181 0.000000 -0.146697
vn -0.989181 0.000000 -0.146697
vn -0.989181 0.000000 -0.146697
vn -0.989181 0.000000 0.146697
vn -0.989181 0.000000 0.146697
vn -0.989181 0.000000 0.146697
vn -0.989181 0.000000 0.146697
vn -0.970025 0.000000 0.243006
vn -0.970025 0.000000 0.243006
vn -0.970025 0.000000 0.243006
vn -0.970025 0.000000 0.243006
vn -0.857722 0.000000 0.514113
vn -0.857722 0.000000 0.514113
vn -0.857722 0.000000 0.514113
vn -0.857722 0.000000 0.514113
vn -0.803205 0.000000 0.595703
vn -0.803205 0.000000 0.595703
vn -0.803205 0.000000 0.595703
vn -0.803205 0.000000 0.595703
vn -0.595703 0.000000 0.803205
vn -0.595703 0.000000 0.803205
vn -0.595703 0.000000 0.803205
vn -0.595703 0.000000 0.803205
vn -0.514113 0.000000 0.857722
vn -0.514113 0.000000 0.857722
vn -0.514113 0.000000 0.857722
vn -0.514113 0.000000 0.857722
vn -0.243006 0.000000 0.970025
vn -0.243006 0.000000 0.970025
vn -0.243006 0.000000 0.970025
vn -0.243006 0.000000 0.970025
vn -0.146697 0.000000 0.989181
vn -0.146697 0.000000 0.989181
vn -0.146697 0.000000 0.989181
vn -0.146697 0.000000 0.989181
vn 0.146697 0.000000 0.989181
vn 0.146697 0.000000 0.989181
vn 0.146697 0.000000 0.989181
vn 0.146697 0.000000 0.989181
vn 0.243006 0.000000 0.970025
vn 0.243006 0.000000 0.970025
vn 0.243006 0.000000 0.970025
vn 0.243006 0.000000 0.970025
vn 0.514113 0.000000 0.857722
vn 0.514113 0.000000 0.857722
vn 0.514113 0.000000 0.857722
vn 0.514113 0.000000 0.857722
vn 0.595703 0.000000 0.803205
vn 0.595703 0.000000 0.803205
vn 0.595703 0.000000 0.803205
vn 0.595703 0.000000 0.803205
vn 0.803205 0.000000 0.595703
vn 0.803205 0.000000 0.595703
vn 0.803205 0.000000 0.595703
vn 0.803205 0.000000 0.595703
vn 0.857722 0.000000 0.514113
vn 0.857722 0.000000 0.514113
vn 0.857722 0.000000 0.514113
vn 0.857722 0.000000 0.514113
vn 0.970025 0.000000 0.243006
vn 0.970025 0.000000 0.243006
vn 0.970025 0.000000 0.243006
vn 0.970025 0.000000 0.243006
vn 0.989181 0.000000 0.146697
vn 0.989181 0.000000 0.146697
vn 0.989181 0.000000 0.146697
vn 0.989181 0.000000 0.146697
vn 0.625683 0.770079 0.124497
vn 0.625683 0.770079 0.124497
vn 0.625683 0.770079 0.124497
vn 0.625683 0.770079 0.124497
vn 0.625683 0.770079 0.124497
vn 0.625683 0.770079 0.124497
vn 0.530406 0.770109 0.354404
vn 0.530406 0.770109 0.354404
vn 0.530406 0.770109 0.354404
vn 0.530406 0.770109 0.354404
vn 0.530406 0.770109 0.354404
vn 0.530406 0.770109 0.354404
vn 0.530406 0.770109 -0.354404
vn 0.530406 0.770109 -0.354404
vn 0.530406 0.770109 -0.354404
vn 0.530406 0.770109 -0.354404
vn 0.530406 0.770109 -0.354404
vn 0.530406 0.770109 -0.354404
vn 0.625683 0.770079 -0.124497
vn 0.625683 0.770079 -0.124497
vn 0.625683 0.770079 -0.124497
vn 0.625683 0.770079 -0.124497
vn 0.625683 0.770079 -0.124497
vn 0.625683 0.770079 -0.124497
vn 0.124497 0.770079 -0.625683
vn 0.124497 0.770079 -0.625683
vn 0.124497 0.770079 -0.625683
vn 0.124497 0.770079 -0.625683
vn 0.124497 0.770079 -0.625683
vn 0.124497 0.770079 -0.625683
vn 0.354404 0.770109 -0.530406
vn 0.354404 0.770109 -0.530406
vn 0.354404 0.770109 -0.530406
vn 0.354404 0.770109 -0.530406
vn 0.354404 0.770109 -0.530406
vn 0.354404 0.770109 -0.530406
vn -0.354404 0.770109 -0.530406
vn -0.354404 0.770109 -0.530406
vn -0.354404 0.770109 -0.530406
vn -0.354404 0.770109 -0.530406
vn -0.354404 0.770109 -0.530406
vn -0.354404 0.770109 -0.530406
vn -0.124497 0.770079 -0.625683
vn -0.124497 0.770079 -0.625683
vn -0.124497 0.770079 -0.625683
vn -0.124497 0.770079 -0.625683
vn -0.124497 0.770079 -0.625683
vn -0.124497 0.770079 -0.625683
vn -0.625683 0.770079 -0.124497
vn -0.625683 0.770079 -0.124497
vn -0.625683 0.770079 -0.124497
vn -0.625683 0.770079 -0.124497
vn -0.625683 0.770079 -0.124497
vn -0.625683 0.770079 -0.124497
vn -0.530406 0.770109 -0.354404
vn -0.530406 0.770109 -0.354404
vn -0.530406 0.770109 -0.354404
vn -0.530406 0.770109 -0.354404
vn -0.530406 0.770109 -0.354404
vn -0.530406 0.770109 -0.354404
vn -0.530406 0.770109 0.354404
vn -0.530406 0.770109 0.354404
vn -0.530406 0.770109 0.354404
vn -0.530406 0.770109 0.354404
vn -0.530406 0.770109 0.354404
vn -0.530406 0.770109 0.354404
vn -0.625683 0.770079 0.124497
vn -0.625683 0.770079 0.124497
vn -0.625683 0.770079 0.124497
vn -0.625683 0.770079 0.124497
vn -0.625683 0.770079 0.124497
vn -0.625683 0.770079 0.124497
vn -0.124497 0.770079 0.625683
vn -0.124497 0.770079 0.625683
vn -0.124497 0.770079 0.625683
vn -0.124497 0.770079 0.625683
vn -0.124497 0.770079 0.625683
vn -0.124497 0.770079 0.625683
vn -0.354404 0.770109 0.530406
vn -0.354404 0.770109 0.530406
vn -0.354404 0.770109 0.530406
vn -0.354404 0.770109 0.530406
vn -0.354404 0.770109 0.530406
vn -0.354404 0.770109 0.530406
vn 0.354404 0.770109 0.530406
vn 0.354404 0.770109 0.530406
vn 0.354404 0.770109 0.530406
vn 0.354404 0.770109 0.530406
vn 0.354404 0.770109 0.530406
vn 0.354404 0.770109 0.530406
vn 0.124497 0.770079 0.625683
vn 0.124497 0.770079 0.625683
vn 0.124497 0.770079 0.625683
vn 0.124497 0.770079 0.625683
vn 0.124497 0.770079 0.625683
vn 0.124497 0.770079 0.625683
vn 0.330801 0.933703 -0.137000
vn 0.330801 0.933703 -0.137000
vn 0.330801 0.933703 -0.137000
vn 0.401319 0.823339 -0.401319
vn 0.401319 0.823339 -0.401319
vn 0.401319 0.823339 -0.401319
vn 0.401319 0.823339 -0.401319
vn 0.137000 0.933703 -0.330801
vn 0.137000 0.933703 -0.330801
vn 0.137000 0.933703 -0.330801
vn 0.000000 0.823303 -0.567602
vn 0.000000 0.823303 -0.567602
vn 0.000000 0.823303 -0.567602
vn 0.000000 0.823303 -0.567602
vn -0.137000 0.933703 -0.330801
vn -0.137000 0.933703 -0.330801
vn -0.137000 0.933703 -0.330801
vn -0.401319 0.823339 -0.401319
vn -0.401319 0.823339 -0.401319
vn -0.401319 0.823339 -0.401319
vn -0.401319 0.823339 -0.401319
vn -0.330801 0.933703 -0.137000
vn -0.330801 0.933703 -0.137000
vn -0.330801 0.933703 -0.137000
vn -0.567602 0.823303 0.000000
vn -0.567602 0.823303 0.000000
vn -0.567602 0.823303 0.000000
vn -0.567602 0.823303 0.000000
vn -0.330801 0.933703 0.137000
vn -0.330801 0.933703 0.137000
vn -0.330801 0.933703 0.137000
vn -0.401319 0.823339 0.401319
vn -0.401319 0.823339 0.401319
vn -0.401319 0.823339 0.401319
vn -0.401319 0.823339 0.401319
vn -0.137000 0.933703 0.330801
vn -0.137000 0.933703 0.330801
vn -0.137000 0.933703 0.330801
vn 0.000000 0.823303 0.567602
vn 0.000000 0.823303 0.567602
vn 0.000000 0.823303 0.567602
vn 0.000000 0.823303 0.567602
vn 0.137000 0.933703 0.330801
vn 0.137000 0.933703 0.330801
vn 0.137000 0.933703 0.330801
vn 0.401319 0.823339 0.401319
vn 0.401319 0.823339 0.401319
vn 0.401319 0.823339 0.401319
vn 0.401319 0.823339 0.401319
vn 0.330801 0.933703 0.137000
vn 0.330801 0.933703 0.137000
vn 0.330801 0.933703 0.137000
vn 0.567602 0.823303 0.000000
vn 0.567602 0.823303 0.000000
vn 0.567602 0.823303 0.000000
vn 0.567602 0.823303 0.000000
vn 0.000000 1.000000 0.000000
vn 0.000000 1.000000 0.000000
vn 0.000000 1.000000 0.000000
vn 0.000000 1.000000 0.000000
vn 0.000000 1.000000 0.000000
vn 0.000000 1.000000 0.000000
vn 0.000000 1.000000 0.000000
vn 0.000000 1.000000 0.000000
vn 0.667999 -0.732199 -0.132900
vn 0.667999 -0.732199 -0.132900
vn 0.667999 -0.732199 -0.132900
vn 0.667999 -0.732199 -0.132900
vn 0.667999 -0.732199 -0.132900
vn 0.667999 -0.732199 -0.132900
vn 0.667999 -0.732199 0.132900
vn 0.667999 -0.732199 0.132900
vn 0.667999 -0.732199 0.132900
vn 0.667999 -0.732199 0.132900
vn 0.667999 -0.732199 0.132900
vn 0.667999 -0.732199 0.132900
vn 0.378400 -0.732200 -0.566300
vn 0.378400 -0.732200 -0.566300
vn 0.378400 -0.732200 -0.566300
vn 0.378400 -0.732200 -0.566300
vn 0.378400 -0.732200 -0.566300
vn 0.378400 -0.732200 -0.566300
vn 0.566300 -0.732200 -0.378400
vn 0.566300 -0.732200 -0.378400
vn 0.566300 -0.732200 -0.378400
vn 0.566300 -0.732200 -0.378400
vn 0.566300 -0.732200 -0.378400
vn 0.566300 -0.732200 -0.378400
vn -0.132900 -0.732199 -0.667999
vn -0.132900 -0.732199 -0.667999
vn -0.132900 -0.732199 -0.667999
vn -0.132900 -0.732199 -0.667999
vn -0.132900 -0.732199 -0.667999
vn -0.132900 -0.732199 -0.667999
vn 0.132900 -0.732199 -0.667999
vn 0.132900 -0.732199 -0.667999
vn 0.132900 -0.732199 -0.667999
vn 0.132900 -0.732199 -0.667999
vn 0.132900 -0.732199 -0.667999
vn 0.132900 -0.732199 -0.667999
vn -0.566300 -0.732200 -0.378400
vn -0.566300 -0.732200 -0.378400
vn -0.566300 -0.732200 -0.378400
vn -0.566300 -0.732200 -0.378400
vn -0.566300 -0.732200 -0.378400
vn -0.566300 -0.732200 -0.378400
vn -0.378400 -0.732200 -0.566300
vn -0.378400 -0.732200 -0.566300
vn -0.378400 -0.732200 -0.566300
vn -0.378400 -0.732200 -0.566300
vn -0.378400 -0.732200 -0.566300
vn -0.378400 -0.732200 -0.566300
vn -0.667999 -0.732199 0.132900
vn -0.667999 -0.732199 0.132900
vn -0.667999 -0.732199 0.132900
vn -0.667999 -0.732199 0.132900
vn -0.667999 -0.732199 0.132900
vn -0.667999 -0.732199 0.132900
vn -0.667999 -0.732199 -0.132900
vn -0.667999 -0.732199 -0.132900
vn -0.667999 -0.732199 -0.132900
vn -0.667999 -0.732199 -0.132900
vn -0.667999 -0.732199 -0.132900
vn -0.667999 -0.732199 -0.132900
vn -0.378400 -0.732200 0.566300
vn -0.378400 -0.732200 0.566300
vn -0.378400 -0.732200 0.566300
vn -0.378400 -0.732200 0.566300
vn -0.378400 -0.732200 0.566300
vn -0.378400 -0.732200 0.566300
vn -0.566300 -0.732200 0.378400
vn -0.566300 -0.732200 0.378400
vn -0.566300 -0.732200 0.378400
vn -0.566300 -0.732200 0.378400
vn -0.566300 -0.732200 0.378400
vn -0.566300 -0.732200 0.378400
vn 0.132900 -0.732199 0.667999
vn 0.132900 -0.732199 0.667999
vn 0.132900 -0.732199 0.667999
vn 0.132900 -0.732199 0.667999
vn 0.132900 -0.732199 0.667999
vn 0.132900 -0.732199 0.667999
vn -0.132900 -0.732199 0.667999
vn -0.132900 -0.732199 0.667999
vn -0.132900 -0.732199 0.667999
vn -0.132900 -0.732199 0.667999
vn -0.132900 -0.732199 0.667999
vn -0.132900 -0.732199 0.667999
vn 0.566300 -0.732200 0.378400
vn 0.566300 -0.732200 0.378400
vn 0.566300 -0.732200 0.378400
vn 0.566300 -0.732200 0.378400
vn 0.566300 -0.732200 0.378400
vn 0.566300 -0.732200 0.378400
vn 0.378400 -0.732200 0.566300
vn 0.378400 -0.732200 0.566300
vn 0.378400 -0.732200 0.566300
vn 0.378400 -0.732200 0.566300
vn 0.378400 -0.732200 0.566300
vn 0.378400 -0.732200 0.566300
vn 0.652922 -0.757425 0.000000
vn 0.652922 -0.757425 0.000000
vn 0.652922 -0.757425 0.000000
vn 0.652922 -0.757425 0.000000
vn 0.461703 -0.757404 -0.461703
vn 0.461703 -0.757404 -0.461703
vn 0.461703 -0.757404 -0.461703
vn 0.461703 -0.757404 -0.461703
vn 0.000000 -0.757425 -0.652922
vn 0.000000 -0.757425 -0.652922
vn 0.000000 -0.757425 -0.652922
vn 0.000000 -0.757425 -0.652922
vn -0.461703 -0.757404 -0.461703
vn -0.461703 -0.757404 -0.461703
vn -0.461703 -0.757404 -0.461703
vn -0.461703 -0.757404 -0.461703
vn -0.652922 -0.757425 0.000000
vn -0.652922 -0.757425 0.000000
vn -0.652922 -0.757425 0.000000
vn -0.652922 -0.757425 0.000000
vn -0.461703 -0.757404 0.461703
vn -0.461703 -0.757404 0.461703
vn -0.461703 -0.757404 0.461703
vn -0.461703 -0.757404 0.461703
vn 0.000000 -0.757425 0.652922
vn 0.000000 -0.757425 0.652922
vn 0.000000 -0.757425 0.652922
vn 0.000000 -0.757425 0.652922
vn 0.461703 -0.757404 0.461703
vn 0.461703 -0.757404 0.461703
vn 0.461703 -0.757404 0.461703
vn 0.461703 -0.757404 0.461703
s off
g polySurface11 diamonds2:Mesh
usemtl blinn2SG
f 1//1 65//2 97//3 17//4
f 1//5 17//6 128//7 96//8
f 2//9 67//10 99//11 18//12
f 2//13 18//14 98//15 66//16
f 3//17 69//18 101//19 19//20
f 3//21 19//22 100//23 68//24
f 4//25 71//26 103//27 20//28
f 4//29 20//30 102//31 70//32
f 5//33 73//34 105//35 21//36
f 5//37 21//38 104//39 72//40
f 6//41 75//42 107//43 22//44
f 6//45 22//46 106//47 74//48
f 7//49 77//50 109//51 23//52
f 7//53 23//54 108//55 76//56
f 8//57 79//58 111//59 24//60
f 8//61 24//62 110//63 78//64
f 9//65 81//66 113//67 25//68
f 9//69 25//70 112//71 80//72
f 10//73 83//74 115//75 26//76
f 10//77 26//78 114//79 82//80
f 11//81 85//82 117//83 27//84
f 11//85 27//86 116//87 84//88
f 12//89 87//90 119//91 28//92
f 12//93 28//94 118//95 86//96
f 13//97 89//98 121//99 29//100
f 13//101 29//102 120//103 88//104
f 14//105 91//106 123//107 30//108
f 14//109 30//110 122//111 90//112
f 15//113 93//114 125//115 31//116
f 15//117 31//118 124//119 92//120
f 16//121 95//122 127//123 32//124
f 16//125 32//126 126//127 94//128
f 33//129 49//130 97//131 65//132
f 33//133 66//134 98//135 49//136
f 34//137 50//138 99//139 67//140
f 34//141 68//142 100//143 50//144
f 35//145 51//146 101//147 69//148
f 35//149 70//150 102//151 51//152
f 36//153 52//154 103//155 71//156
f 36//157 72//158 104//159 52//160
f 37//161 53//162 105//163 73//164
f 37//165 74//166 106//167 53//168
f 38//169 54//170 107//171 75//172
f 38//173 76//174 108//175 54//176
f 39//177 55//178 109//179 77//180
f 39//181 78//182 110//183 55//184
f 40//185 56//186 111//187 79//188
f 40//189 80//190 112//191 56//192
f 41//193 57//194 113//195 81//196
f 41//197 82//198 114//199 57//200
f 42//201 58//202 115//203 83//204
f 42//205 84//206 116//207 58//208
f 43//209 59//210 117//211 85//212
f 43//213 86//214 118//215 59//216
f 44//217 60//218 119//219 87//220
f 44//221 88//222 120//223 60//224
f 45//225 61//226 121//227 89//228
f 45//229 90//230 122//231 61//232
f 46//233 62//234 123//235 91//236
f 46//237 92//238 124//239 62//240
f 47//241 63//242 125//243 93//244
f 47//245 94//246 126//247 63//248
f 48//249 64//250 127//251 95//252
f 48//253 96//254 128//255 64//256
f 17//257 136//258 32//259 127//260 64//261 128//262
f 31//263 125//264 63//265 126//266 32//267 136//268
f 18//269 99//270 50//271 100//272 19//273 129//274
f 18//275 129//276 17//277 97//278 49//279 98//280
f 20//281 103//282 52//283 104//284 21//285 130//286
f 20//287 130//288 19//289 101//290 51//291 102//292
f 22//293 107//294 54//295 108//296 23//297 131//298
f 22//299 131//300 21//301 105//302 53//303 106//304
f 24//305 111//306 56//307 112//308 25//309 132//310
f 24//311 132//312 23//313 109//314 55//315 110//316
f 26//317 115//318 58//319 116//320 27//321 133//322
f 26//323 133//324 25//325 113//326 57//327 114//328
f 28//329 119//330 60//331 120//332 29//333 134//334
f 28//335 134//336 27//337 117//338 59//339 118//340
f 30//341 123//342 62//343 124//344 31//345 135//346
f 30//347 135//348 29//349 121//350 61//351 122//352
f 137//353 129//354 138//355
f 138//356 129//357 19//358 130//359
f 138//360 130//361 139//362
f 139//363 130//364 21//365 131//366
f 139//367 131//368 140//369
f 140//370 131//371 23//372 132//373
f 140//374 132//375 141//376
f 141//377 132//378 25//379 133//380
f 141//381 133//382 142//383
f 142//384 133//385 27//386 134//387
f 142//388 134//389 143//390
f 143//391 134//392 29//393 135//394
f 143//395 135//396 144//397
f 144//398 135//399 31//400 136//401
f 144//402 136//403 137//404
f 17//405 129//406 137//407 136//408
f 137//409 138//410 139//411 140//412 141//413 142//414 143//415 144//416
f 1//417 145//418 2//419 66//420 33//421 65//422
f 1//423 96//424 48//425 95//426 16//427 152//428
f 3//429 146//430 4//431 70//432 35//433 69//434
f 3//435 68//436 34//437 67//438 2//439 145//440
f 5//441 147//442 6//443 74//444 37//445 73//446
f 5//447 72//448 36//449 71//450 4//451 146//452
f 7//453 148//454 8//455 78//456 39//457 77//458
f 7//459 76//460 38//461 75//462 6//463 147//464
f 9//465 149//466 10//467 82//468 41//469 81//470
f 9//471 80//472 40//473 79//474 8//475 148//476
f 11//477 150//478 12//479 86//480 43//481 85//482
f 11//483 84//484 42//485 83//486 10//487 149//488
f 13//489 151//490 14//491 90//492 45//493 89//494
f 13//495 88//496 44//497 87//498 12//499 150//500
f 15//501 152//502 16//503 94//504 47//505 93//506
f 15//507 92//508 46//509 91//510 14//511 151//512
f 1//513 152//514 153//515 145//516
f 3//517 145//518 153//519 146//520
f 5//521 146//522 153//523 147//524
f 7//525 147//526 153//527 148//528
f 9//529 148//530 153//531 149//532
f 11//533 149//534 153//535 150//536
f 13//537 150//538 153//539 151//540
f 15//541 151//542 153//543 152//544
